Data
…
Now use the Using diamonds_path insdide the read_csv() function to read in the diamonds.csv dataset. Store it as a new object called diamonds.

# read diamonds data
diamonds <- read_csv(file = XX)

# read diamonds data
diamonds <- read_csv(file = diamonds_path)

Print the diamonds data and inspect the column names in the header line. Something’s wrong!

# print diamonds
diamonds

## # A tibble: 99 x 7
##    `0.8` `Very Good` H     VVS1  `62.9`  `58` `4468`
##    <chr> <chr>       <chr> <chr>  <dbl> <dbl>  <dbl>
##  1 0.74  Ideal       H     IF      60.9    57   3760
##  2 2.03  Premium     I     SI1     61.4    58  15683
##  3 0.41  Ideal       G     VVS1    62.1    55   1151
##  4 1.54  Premium     G     VS1     61.1    56  14438
##  5 0.3   Ideal       E     VS2     61.8    55    795
##  6 0.3   Ideal       H     VVS2    61.5    56    605
##  7 1.2   Ideal       D     SI1     61.8    58   7508
##  8 0.58  Ideal       E     VS2     62.3    54   1809
##  9 0.31  Ideal       H     VS2     62.6    57    489
## 10 1.24  Very Good   F     VS1     59      60   9885
## # … with 89 more rows
…
# read diamonds data with specified col_names
diamonds <- read_csv(file = "XX", 
                     col_names = c('name_1','name_2','...'))  # Vector of column names

# read diamonds data with specified col_names
diamonds <- read_csv(file = diamonds_path,
                     col_names = c("carat", "cut", "color", "clarity", "depth", "table", "price"))

Re-inspect the header by printing the data. Has the header been fixed?

# print diamonds
diamonds

## # A tibble: 100 x 7
##    carat cut       color clarity depth table price
##    <chr> <chr>     <chr> <chr>   <dbl> <dbl> <dbl>
##  1 0.8   Very Good H     VVS1     62.9    58  4468
##  2 0.74  Ideal     H     IF       60.9    57  3760
##  3 2.03  Premium   I     SI1      61.4    58 15683
##  4 0.41  Ideal     G     VVS1     62.1    55  1151
##  5 1.54  Premium   G     VS1      61.1    56 14438
##  6 0.3   Ideal     E     VS2      61.8    55   795
##  7 0.3   Ideal     H     VVS2     61.5    56   605
##  8 1.2   Ideal     D     SI1      61.8    58  7508
##  9 0.58  Ideal     E     VS2      62.3    54  1809
## 10 0.31  Ideal     H     VS2      62.6    57   489
## # … with 90 more rows
…
# Change the value at position XX to YY
diamonds$carat[17] <- 0.37

Ok you fixed the value but carat is still character. We can fix it with the type_convert() function. Apply the type_convert() function to the diamonds data to have R fix all the data types. Make sure to assign the result back to diamonds so that you change the object!

# re-infer data types
diamonds <- type_convert(diamonds)

Print the diamonds object and look at the column types. Has the type of carat changed to double?

# print diamonds data set
diamonds

## # A tibble: 100 x 7
##    carat cut       color clarity depth table price
##    <dbl> <chr>     <chr> <chr>   <dbl> <dbl> <dbl>
##  1 0.8   Very Good H     VVS1     62.9    58  4468
##  2 0.74  Ideal     H     IF       60.9    57  3760
##  3 2.03  Premium   I     SI1      61.4    58 15683
##  4 0.41  Ideal     G     VVS1     62.1    55  1151
##  5 1.54  Premium   G     VS1      61.1    56 14438
##  6 0.3   Ideal     E     VS2      61.8    55   795
##  7 0.3   Ideal     H     VVS2     61.5    56   605
##  8 1.2   Ideal     D     SI1      61.8    58  7508
##  9 0.580 Ideal     E     VS2      62.3    54  1809
## 10 0.31  Ideal     H     VS2      62.6    57   489
## # … with 90 more rows
…
Using read_excel(), read in the titanic.xls dataset as a new object called titanic (Make sure you have alredy loaded the readxl package at the beginning of your script).

titanic <- read_excel(path = "XX")

# Read titanic data
titanic <- read_excel("1_Data/titanic.xls")

Print titanic and evaluate its dimensions using dim().

# print and show dimenisons
titanic

## # A tibble: 1,309 x 14
##    pclass survived name  sex      age sibsp parch ticket  fare cabin embarked
##     <dbl>    <dbl> <chr> <chr>  <dbl> <dbl> <dbl> <chr>  <dbl> <chr> <chr>   
##  1      1        1 Alle… fema… 29         0     0 24160  211.  B5    S       
##  2      1        1 Alli… male   0.917     1     2 113781 152.  C22 … S       
##  3      1        0 Alli… fema…  2         1     2 113781 152.  C22 … S       
##  4      1        0 Alli… male  30         1     2 113781 152.  C22 … S       
##  5      1        0 Alli… fema… 25         1     2 113781 152.  C22 … S       
##  6      1        1 Ande… male  48         0     0 19952   26.6 E12   S       
##  7      1        1 Andr… fema… 63         1     0 13502   78.0 D7    S       
##  8      1        0 Andr… male  39         0     0 112050   0   A36   S       
##  9      1        1 Appl… fema… 53         2     0 11769   51.5 C101  S       
## 10      1        0 Arta… male  71         0     0 PC 17…  49.5 <NA>  C       
## # … with 1,299 more rows, and 3 more variables: boat <chr>, body <dbl>,
## #   home.dest <chr>
…
Using read_spss() read in the sleep data set sleep.sav of staff at he University of Melbourne as a new object called sleep. (Make sure that you have first loaded the haven package).

XX <- read_spss(file = "XX")

# Read sleep data
sleep <- read_spss(file = "1_Data/sleep.sav")

Print your sleep object and evaluate its dimensions using dim().

# print and show dimensions
sleep

## # A tibble: 271 x 55
##       id     sex   age marital edlevel weight height healthrate fitrate
##    <dbl> <dbl+l> <dbl> <dbl+l> <dbl+l>  <dbl>  <dbl>  <dbl+lbl> <dbl+l>
##  1    83 0 [fem…    42 2 [mar… 2 [sec…     52    162 10 [very …       7
##  2   294 0 [fem…    54 2 [mar… 5 [pos…     65    174  8               7
##  3   425 1 [mal…    NA 2 [mar… 2 [sec…     89    170  6               5
##  4    64 0 [fem…    41 2 [mar… 5 [pos…     66    178  9               7
##  5   536 0 [fem…    39 2 [mar… 5 [pos…     62    160  9               5
##  6    57 0 [fem…    66 2 [mar… 4 [und…     62    165  8               8
##  7   251 0 [fem…    36 1 [sin… 3 [tra…     62    165  9               7
##  8   255 0 [fem…    35 2 [mar… 5 [pos…     75    174  6               6
##  9   265 1 [mal…    NA 2 [mar… 5 [pos…     90    180  6               6
## 10   290 1 [mal…    41 2 [mar… 5 [pos…     75    187  9               9
## # … with 261 more rows, and 46 more variables: weightrate <dbl+lbl>,
## #   smoke <dbl+lbl>, smokenum <dbl>, alchohol <dbl>, caffeine <dbl>,
## #   hourwnit <dbl>, hourwend <dbl>, hourneed <dbl>, trubslep <dbl+lbl>,
## #   trubstay <dbl+lbl>, wakenite <dbl+lbl>, niteshft <dbl+lbl>,
## #   liteslp <dbl+lbl>, refreshd <dbl+lbl>, satsleep <dbl+lbl>,
## #   qualslp <dbl+lbl>, stressmo <dbl+lbl>, medhelp <dbl+lbl>,
## #   problem <dbl+lbl>, impact1 <dbl+lbl>, impact2 <dbl+lbl>, impact3 <dbl+lbl>,
## #   impact4 <dbl+lbl>, impact5 <dbl+lbl>, impact6 <dbl+lbl>, impact7 <dbl+lbl>,
## #   stopb <dbl+lbl>, restlss <dbl+lbl>, drvsleep <dbl+lbl>, drvresul <dbl+lbl>,
…
Using read_sas(), read in airbnb_zuerich.sas7bdat containing AirBnB listings in Zürich, Switzerland and call the object airbnb_zuerich.

# read sas data
XX <- read_sas(data_file = "XX")

# read airbnb_zuerich.sas7bdat
airbnb_zuerich <- read_sas(data_file = "1_Data/airbnb_zuerich.sas7bdat")

Print airbnb_zuerich and then evaluate its dimensions using dim().

# print and show dimenisons
airbnb_zuerich

## # A tibble: 2,392 x 20
##    room_id survey_id host_id room_type country city  borough neighborhood
##      <dbl>     <dbl>   <dbl> <chr>     <chr>   <chr> <chr>   <chr>       
##  1  1.37e7      1363  5.63e7 Entire h… ""      Zuri… ""      Kreis 12    
##  2  8.00e6      1363  1.65e7 Entire h… ""      Zuri… ""      Kreis 7     
##  3  1.52e7      1363  5.03e7 Entire h… ""      Zuri… ""      Kreis 4     
##  4  7.56e6      1363  4.92e6 Entire h… ""      Zuri… ""      Kreis 1     
##  5  1.86e7      1363  2.04e7 Entire h… ""      Zuri… ""      Kreis 12    
##  6  6.44e6      1363  1.24e7 Entire h… ""      Zuri… ""      Kreis 2     
##  7  1.88e6      1363  1.60e6 Entire h… ""      Zuri… ""      Kreis 7     
##  8  3.63e6      1363  1.83e7 Entire h… ""      Zuri… ""      Kreis 8     
##  9  1.44e7      1363  5.19e7 Entire h… ""      Zuri… ""      Kreis 2     
## 10  1.28e7      1363  2.64e5 Entire h… ""      Zuri… ""      Kreis 2     
## # … with 2,382 more rows, and 12 more variables: reviews <dbl>,
## #   overall_satisfaction <dbl>, accommodates <dbl>, bedrooms <dbl>,
## #   bathrooms <chr>, price <dbl>, minstay <chr>, name <chr>,
## #   last_modified <dttm>, latitude <dbl>, longitude <dbl>, location <chr>
…
