Statistics
…
# Done!

Open a new R script and save it as a new file called statistics_practical.R in the 2_Code folder. At the top of the script, using comments, write your name and the date. The, load the set of packages listed above with library().

For this practical, well use the kc_house.csv data. This dataset contains house sale prices for King County, Washington. It includes homes sold between May 2014 and May 2015. Using the following template, load the data into R and store it as a new object called kc_house.

kc_house <- read_csv(file = "XX")

kc_house <- read_csv(file = "1_Data/kc_house.csv")

Using print(), summary(), and head(), explore the data to make sure it was loaded correctly.

kc_house

# A tibble: 21,613 x 21
   id    date                 price bedrooms bathrooms sqft_living sqft_lot
   <chr> <dttm>               <dbl>    <dbl>     <dbl>       <dbl>    <dbl>
 1 7129 2014-10-13 00:00:00 2.22e5        3      1           1180     5650
 2 6414 2014-12-09 00:00:00 5.38e5        3      2.25        2570     7242
 3 5631 2015-02-25 00:00:00 1.80e5        2      1            770    10000
 4 2487 2014-12-09 00:00:00 6.04e5        4      3           1960     5000
 5 1954 2015-02-18 00:00:00 5.10e5        3      2           1680     8080
 6 7237 2014-05-12 00:00:00 1.23e6        4      4.5         5420   101930
 7 1321 2014-06-27 00:00:00 2.58e5        3      2.25        1715     6819
 8 2008 2015-01-15 00:00:00 2.92e5        3      1.5         1060     9711
 9 2414 2015-04-15 00:00:00 2.30e5        3      1           1780     7470
10 3793 2015-03-12 00:00:00 3.23e5        3      2.5         1890     6560
#  with 21,603 more rows, and 14 more variables: floors <dbl>,
#   waterfront <dbl>, view <dbl>, condition <dbl>, grade <dbl>,
#   sqft_above <dbl>, sqft_basement <dbl>, yr_built <dbl>,
#   yr_renovated <dbl>, zipcode <dbl>, lat <dbl>, long <dbl>,
#   sqft_living15 <dbl>, sqft_lot15 <dbl>
…
