Case Study: Dimarta Clinical Trial
…
## My Name
## The Date
## Dimarta - Case Study

library(tidyverse)

B - Data I/O

Using read_csv(), load the dimarta_trial.csv, dimarta_demographics.csv, and dimarta_biomarker.csv datasets as three new objects called trial_df, demographics_df, and biomarker_df.

Get a first impression of the objects you just created by exploring them with a mixture of the View(), head(), names(), and str() functions. Were they all loaded correctly?

trial_df

# A tibble: 300 x 6
   PatientID   arm histamine_start histamine_end qol_start qol_end
   <chr>     <int>           <dbl>         <dbl>     <int>   <int>
 1 txdjezeo      1            58.6          67.0         3       3
 2 htxfjlxk      3            36.1          28.0         3       4
 3 vkdqhyez      1            57.7          57.3         2       2
 4 dbuvrwfq      3            56.6          57.4         2       3
 5 ydaitaah      2            64.7          67.9         5       7
 6 omhxokdr      1            37.4          41.7         2       2
 7 dsybafny      1            88.4          95.9         4       6
 8 fdfmcoto      2            20.2          18.9         2       2
 9 rwsbykxe      2            48.3          43.0         3       3
10 xocueqqe      3            48.6          55.2         1       1
# ... with 290 more rows

demographics_df

# A tibble: 300 x 5
   PatientID   age gender site   diseasestatus
   <chr>     <int>  <int> <chr>  <chr>        
 1 pkyivajv     36      0 Tokyo  Mid          
 2 dbuvrwfq     39      0 Paris  Late         
 3 jhuztppp     30      0 Tokyo  Mid          
 4 qejexgza     34      1 Tokyo  Late         
 5 cszrjxju     41      1 Tokyo  Late         
 6 uhvgttqh     31      0 London Late         
 7 cflnybdw     45      1 Tokyo  Mid          
 8 igobmmvj     48      0 Tokyo  Late         
 9 lcrtmerg     35      0 London Late         
10 fjjrnsnt     43      1 London Mid          
# ... with 290 more rows

biomarker_df

# A tibble: 900 x 3
   PatientID Biomarker BiomarkerStatus
   <chr>     <chr>     <lgl>          
 1 ygazqssv  dw        FALSE          
 2 qosueuyw  ms        FALSE          
 3 bhhykjvw  ms        FALSE          
 4 ifajorty  np        TRUE           
 5 gxnsybdt  ms        FALSE          
 6 igobmmvj  ms        FALSE          
 7 knnzlzun  ms        FALSE          
 8 glzcbmby  ms        FALSE          
 9 gxnsybdt  dw        TRUE           
10 fzrhdpdu  np        FALSE          
# ... with 890 more rows
…
Now, using the left_join function, add the biomarker_wide_df data to the dimarta_df data! Now you should have all of the data in a single dataframe called dimarta_df

dimarta_df <- dimarta_df %>% 
  left_join(biomarker_wide_df)

Joining, by = "PatientID"

View dimarta_df to make sure the data look correct! The data should have one row for each patient, and 13 separate columns, including dw, ms, and np

dimarta_df

# A tibble: 300 x 14
   PatientID StudyArm histamine_start histamine_end qol_start qol_end
   <chr>     <chr>              <dbl>         <dbl>     <int>   <int>
 1 txdjezeo  placebo             58.6          67.0         3       3
 2 htxfjlxk  dimarta             36.1          28.0         3       4
 3 vkdqhyez  placebo             57.7          57.3         2       2
 4 dbuvrwfq  dimarta             56.6          57.4         2       3
 5 ydaitaah  adiclax             64.7          67.9         5       7
 6 omhxokdr  placebo             37.4          41.7         2       2
 7 dsybafny  placebo             88.4          95.9         4       6
 8 fdfmcoto  adiclax             20.2          18.9         2       2
 9 rwsbykxe  adiclax             48.3          43.0         3       3
10 xocueqqe  dimarta             48.6          55.2         1       1
# ... with 290 more rows, and 8 more variables: age <int>, gender <int>,
#   site <chr>, diseasestatus <chr>, gender_c <chr>, dw <lgl>, ms <lgl>,
#   np <lgl>
…
# A tibble: 3 x 2
  StudyArm Counts
  <chr>     <int>
1 adiclax     100
2 dimarta     100
3 placebo     100

Find out how many men and women were assigned to each study arm (Hint: You can use very similar code to what you used above, just add a second grouping variable!)

dimarta_df %>%
  group_by(StudyArm, gender_c) %>%
    mutate(Counts = n())

# A tibble: 300 x 15
# Groups:   StudyArm, gender_c [6]
   PatientID StudyArm histamine_start histamine_end qol_start qol_end
   <chr>     <chr>              <dbl>         <dbl>     <int>   <int>
 1 txdjezeo  placebo             58.6          67.0         3       3
 2 htxfjlxk  dimarta             36.1          28.0         3       4
 3 vkdqhyez  placebo             57.7          57.3         2       2
 4 dbuvrwfq  dimarta             56.6          57.4         2       3
 5 ydaitaah  adiclax             64.7          67.9         5       7
 6 omhxokdr  placebo             37.4          41.7         2       2
 7 dsybafny  placebo             88.4          95.9         4       6
 8 fdfmcoto  adiclax             20.2          18.9         2       2
 9 rwsbykxe  adiclax             48.3          43.0         3       3
10 xocueqqe  dimarta             48.6          55.2         1       1
# ... with 290 more rows, and 9 more variables: age <int>, gender <int>,
#   site <chr>, diseasestatus <chr>, gender_c <chr>, dw <lgl>, ms <lgl>,
#   np <lgl>, Counts <int>
…
Add a new column to dimarta_df called qol_change that shows the change in patients quality of life.

dimarta_df <- dimarta_df %>%
  mutate(
    qol_change = qol_end - qol_start
  )

# Look at result
dimarta_df %>% 
  select(qol_change)

# A tibble: 300 x 1
   qol_change
        <int>
 1          0
 2          1
 3          0
 4          1
 5          2
 6          0
 7          2
 8          0
 9          0
10          0
# ... with 290 more rows
…
