Case Study: Financial Data
…
yen_usd <- read_delim(file = '1_Data/yen-dollar.txt', delim = '\t')

Parsed with column specification:
cols(
  `02 Jan 1990` = col_character(),
  `0.006838` = col_double()
)

Print the eur_usd and yen_usd objects. Are all the data types and variable names correct? Not quite, right?

# print exchange rate data sets
eur_usd 

# A tibble: 6,545 x 2
   `04 Jan 1999` `1.186669`
   <chr>              <dbl>
 1 05 Jan 1999         1.18
 2 06 Jan 1999         1.16
 3 07 Jan 1999         1.17
 4 08 Jan 1999         1.16
 5 11 Jan 1999         1.15
 6 12 Jan 1999         1.16
 7 13 Jan 1999         1.17
 8 14 Jan 1999         1.17
 9 15 Jan 1999         1.16
10 18 Jan 1999         1.16
# ... with 6,535 more rows

yen_usd

# A tibble: 8,764 x 2
   `02 Jan 1990` `0.006838`
   <chr>              <dbl>
 1 03 Jan 1990      0.00686
 2 04 Jan 1990      0.00698
 3 05 Jan 1990      0.00695
 4 08 Jan 1990      0.00694
 5 09 Jan 1990      0.00689
 6 10 Jan 1990      0.00688
 7 11 Jan 1990      0.00688
 8 12 Jan 1990      0.00688
 9 16 Jan 1990      0.00687
10 17 Jan 1990      0.00687
# ... with 8,754 more rows
…
Now you should have tidier data! Go ahead an explore the data a bit. What data do they contain? Consider using summary or skimr::skim().

C - Wrangling

Before we can begin the analysis of the data, we to join the individual data frames into a single data frame called financial_data that contains only the dates variable (Date), the stock index (unadjusted) closing prices (Close), as well as the exchange rates. Begin by joining dow and dax using inner_join(), selecting only the Date and Close variables of each data frame. See code below.

# create single data frame
financial <- dow %>% 
  select(Date,Close) %>% 
  inner_join(dax %>% select(Date, Close), by = 'Date')
financial

# A tibble: 7,577 x 3
   Date       Close.x Close.y
   <date>       <dbl>   <dbl>
 1 1987-12-30   1950.   1005.
 2 1987-12-31   1939.     NA 
 3 1988-01-04   2015.    956.
 4 1988-01-05   2032.    996.
 5 1988-01-06   2038.   1006.
 6 1988-01-07   2052.   1014.
 7 1988-01-08   1911.   1027.
 8 1988-01-11   1945.    988.
 9 1988-01-12   1929.    987.
10 1988-01-13   1925.    966.
# ... with 7,567 more rows

Inspect the data! What has R done with the names of the two Close variables? Run the code again, this time using the suffix-argument to give both variables suffixes preserve the origin of these variables, e.g., suffix = c(_dow','_dax').

# create single data frame
financial <- dow %>% 
  select(Date,Close) %>% 
  inner_join(dax %>% select(Date, Close),
            by = 'Date',
             suffix = c('_dow','_dax'))
financial

# A tibble: 7,577 x 3
   Date       Close_dow Close_dax
   <date>         <dbl>     <dbl>
 1 1987-12-30     1950.     1005.
 2 1987-12-31     1939.       NA 
 3 1988-01-04     2015.      956.
 4 1988-01-05     2032.      996.
 5 1988-01-06     2038.     1006.
 6 1988-01-07     2052.     1014.
 7 1988-01-08     1911.     1027.
 8 1988-01-11     1945.      988.
 9 1988-01-12     1929.      987.
10 1988-01-13     1925.      966.
# ... with 7,567 more rows
…
# create long version of data frame
financial_long <- financial %>% 
  gather(variable, 
         value, 
         -Date, 
         -year)
financial_long

# A tibble: 45,920 x 4
   Date        year variable  value
   <date>     <dbl> <chr>     <dbl>
 1 1999-01-04  1999 Close_dow 9184.
 2 1999-01-05  1999 Close_dow 9311.
 3 1999-01-06  1999 Close_dow 9545.
 4 1999-01-07  1999 Close_dow 9538.
 5 1999-01-08  1999 Close_dow 9643.
 6 1999-01-11  1999 Close_dow 9620.
 7 1999-01-12  1999 Close_dow 9475.
 8 1999-01-13  1999 Close_dow 9350.
 9 1999-01-14  1999 Close_dow 9121.
10 1999-01-15  1999 Close_dow 9341.
# ... with 45,910 more rows
…
