Wrangling
…
]

.pull-right45[

```r
# "Gather" wide data to long
combined %>% 
  gather(time,  # New group variable
         value, # New target variable
         -ID)   # Omit ID  
```

```
# A tibble: 25 x 3
      ID time  value
   <dbl> <chr> <chr>
 1     1 age   37   
 2     2 age   65   
 3     3 age   57   
 4     4 age   34   
 5     5 age   45   
 6     1 arm   1    
 7     2 arm   2    
 8     3 arm   2    
 9     4 arm   1    
10     5 arm   2    
# … with 15 more rows
```
…
