Plotting
…
library(XX)     
library(XX)
#...

library(tidyverse)

For this practical, we’ll use the mcondalds.csv data set, which contains nutrition information about items from McDonalds. Using read_csv(), load the data into R and store it as a new object called mcdonalds.

mcdonalds <- read_csv("1_Data/mcdonalds.csv")

Take a look at the first few rows of the dataset(s) by printing them to the console.

mcdonalds

# A tibble: 260 x 24
   Category Item  `Serving Size` Calories `Calories from … `Total Fat`
   <chr>    <chr> <chr>             <int>            <int>       <dbl>
 1 Breakfa… Egg … 4.8 oz (136 g)      300              120          13
 2 Breakfa… Egg … 4.8 oz (135 g)      250               70           8
 3 Breakfa… Saus… 3.9 oz (111 g)      370              200          23
 4 Breakfa… Saus… 5.7 oz (161 g)      450              250          28
 5 Breakfa… Saus… 5.7 oz (161 g)      400              210          23
 6 Breakfa… Stea… 6.5 oz (185 g)      430              210          23
 7 Breakfa… Baco… 5.3 oz (150 g)      460              230          26
 8 Breakfa… Baco… 5.8 oz (164 g)      520              270          30
 9 Breakfa… Baco… 5.4 oz (153 g)      410              180          20
10 Breakfa… Baco… 5.9 oz (167 g)      470              220          25
# ... with 250 more rows, and 18 more variables: `Total Fat (% Daily
#   Value)` <int>, `Saturated Fat` <dbl>, `Saturated Fat (% Daily
#   Value)` <int>, `Trans Fat` <dbl>, Cholesterol <int>, `Cholesterol (%
#   Daily Value)` <int>, Sodium <int>, `Sodium (% Daily Value)` <int>,
#   Carbohydrates <int>, `Carbohydrates (% Daily Value)` <int>, `Dietary
#   Fiber` <int>, `Dietary Fiber (% Daily Value)` <int>, Sugars <int>,
#   Protein <int>, `Vitamin A (% Daily Value)` <int>, `Vitamin C (% Daily
#   Value)` <int>, `Calcium (% Daily Value)` <int>, `Iron (% Daily
#   Value)` <int>

You’ll notice that the mcdonalds data frame has many column names with spaces and ‘bad’ characters like parentheses. Run the following code to fix that!

# Clean up the names of mcdonalds
mcdonalds <- mcdonalds %>%
  select(-contains("% Daily Value")) %>%  # Remove all '% Daily Value' columns
  rename_all(.funs = ~ gsub(" ", "", .))  # no more spaces!

Now print the dataset again, do the names look better?

mcdonalds

# A tibble: 260 x 14
   Category Item  ServingSize Calories CaloriesfromFat TotalFat
   <chr>    <chr> <chr>          <int>           <int>    <dbl>
 1 Breakfa… Egg … 4.8 oz (13…      300             120       13
 2 Breakfa… Egg … 4.8 oz (13…      250              70        8
 3 Breakfa… Saus… 3.9 oz (11…      370             200       23
 4 Breakfa… Saus… 5.7 oz (16…      450             250       28
 5 Breakfa… Saus… 5.7 oz (16…      400             210       23
 6 Breakfa… Stea… 6.5 oz (18…      430             210       23
 7 Breakfa… Baco… 5.3 oz (15…      460             230       26
 8 Breakfa… Baco… 5.8 oz (16…      520             270       30
 9 Breakfa… Baco… 5.4 oz (15…      410             180       20
10 Breakfa… Baco… 5.9 oz (16…      470             220       25
# ... with 250 more rows, and 8 more variables: SaturatedFat <dbl>,
#   TransFat <dbl>, Cholesterol <int>, Sodium <int>, Carbohydrates <int>,
#   DietaryFiber <int>, Sugars <int>, Protein <int>
…
