Plotting II
…
library(XX)
library(XX)
library(XX)

For this practical, we’ll use the crime.csv data set, containing crime data of US counties across various states. Using read_csv(), load the data into R and store it as a new object called crime.

crime <- read_csv("1_Data/crime.csv")

Take a look at the first few rows of the data set(s) by printing them to the console.

crime

# A tibble: 1,071 x 36
   communityname state population householdsize pctUrban medIncome pctWSocSec
   <chr>         <chr>      <dbl>         <dbl>    <dbl>     <dbl>      <dbl>
 1 BerkeleyHeig… NJ         11980          3.1       100     75122       23.6
 2 Marpletownsh… PA         23123          2.82      100     47917       35.5
 3 Norwoodtown   MA         28700          2.6       100     42805       30.2
 4 Wacocity      TX        103590          2.62      100     17852       29.1
 5 Shermancity   TX         31601          2.54      100     24763       32.7
 6 SanPablocity  CA         25158          2.89      100     25479       23.0
 7 Glendalecity  CA        180038          2.62      100     34372       20.3
 8 Worthingtonc… OH         14869          2.67      100     49851       23.8
 9 Arlingtoncity TX        261721          2.6       100     35048       11.0
10 Marinacity    CA         26436          3.34      100     29043       10.7
# … with 1,061 more rows, and 29 more variables: pctWRetire <dbl>,
#   whitePerCap <dbl>, blackPerCap <dbl>, AsianPerCap <dbl>, HispPerCap <dbl>,
#   PctPopUnderPov <dbl>, PctNotHSGrad <dbl>, PctUnemployed <dbl>,
#   TotalPctDiv <dbl>, PersPerFam <dbl>, PctWorkMom <dbl>, NumImmig <dbl>,
#   PctImmigRecent <dbl>, PctNotSpeakEnglWell <dbl>, RentMedian <dbl>,
#   NumInShelters <dbl>, NumStreet <dbl>, PctForeignBorn <dbl>,
#   PctBornSameState <dbl>, LandArea <dbl>, PopDens <dbl>,
#   PctUsePubTrans <dbl>, murders <dbl>, robberies <dbl>, assaults <dbl>,
#   burglaries <dbl>, larcenies <dbl>, autoTheft <dbl>, arsons <dbl>
…
