StatisticsI_practical.utf8
…
Open a new R script. At the top of the script, using comments, write your name and the date. Save it as a new file called statisticsI_practical.R in the 2_Code folder.

Using library() load the set of packages for this practical listed in the packages section above.

library(tidyverse)

For this practical, we’ll use the kc_house.csv data. This dataset contains house sale prices for King County, Washington. It includes homes sold between May 2014 and May 2015. Using the following template, load the data into R and store it as a new object called kc_house.

kc_house <- read_csv(file = "XX")

Using print(), summary(), and head(), explore the data to make sure it was loaded correctly.

kc_house

# A tibble: 21,613 x 21
   id    date                 price bedrooms bathrooms sqft_living sqft_lot
   <chr> <dttm>               <dbl>    <dbl>     <dbl>       <dbl>    <dbl>
 1 7129… 2014-10-13 00:00:00 2.22e5        3      1           1180     5650
 2 6414… 2014-12-09 00:00:00 5.38e5        3      2.25        2570     7242
 3 5631… 2015-02-25 00:00:00 1.80e5        2      1            770    10000
 4 2487… 2014-12-09 00:00:00 6.04e5        4      3           1960     5000
 5 1954… 2015-02-18 00:00:00 5.10e5        3      2           1680     8080
 6 7237… 2014-05-12 00:00:00 1.23e6        4      4.5         5420   101930
 7 1321… 2014-06-27 00:00:00 2.58e5        3      2.25        1715     6819
 8 2008… 2015-01-15 00:00:00 2.92e5        3      1.5         1060     9711
 9 2414… 2015-04-15 00:00:00 2.30e5        3      1           1780     7470
10 3793… 2015-03-12 00:00:00 3.23e5        3      2.5         1890     6560
# … with 21,603 more rows, and 14 more variables: floors <dbl>,
#   waterfront <dbl>, view <dbl>, condition <dbl>, grade <dbl>,
#   sqft_above <dbl>, sqft_basement <dbl>, yr_built <dbl>, yr_renovated <dbl>,
#   zipcode <dbl>, lat <dbl>, long <dbl>, sqft_living15 <dbl>, sqft_lot15 <dbl>
…
Using the following template, sort the data frame in descending order of price. Then, print it. Do you see the house with the highest selling price at the top?

kc_house <- kc_house %>%
  arrange(desc(XXX))

kc_house

kc_house <- kc_house %>%
  arrange(desc(price))

kc_house

# A tibble: 21,613 x 26
   id    date                 price bedrooms bathrooms living_sqft lot_sqft
   <chr> <dttm>               <dbl>    <dbl>     <dbl>       <dbl>    <dbl>
 1 6762… 2014-10-13 00:00:00 7.70e6        6      8          12050    27600
 2 9808… 2014-06-11 00:00:00 7.06e6        5      4.5        10040    37325
 3 9208… 2014-09-19 00:00:00 6.88e6        6      7.75        9890    31374
 4 2470… 2014-08-04 00:00:00 5.57e6        5      5.75        9200    35069
 5 8907… 2015-04-13 00:00:00 5.35e6        5      5           8000    23985
 6 7558… 2015-04-13 00:00:00 5.30e6        6      6           7390    24829
 7 1247… 2014-10-20 00:00:00 5.11e6        5      5.25        8010    45517
 8 1924… 2014-06-17 00:00:00 4.67e6        5      6.75        9640    13068
 9 7738… 2014-08-15 00:00:00 4.50e6        5      5.5         6640    40014
10 3835… 2014-06-18 00:00:00 4.49e6        4      3           6430    27517
# … with 21,603 more rows, and 19 more variables: floors <dbl>,
#   waterfront <dbl>, view <dbl>, condition <dbl>, grade <dbl>,
#   above_sqft <dbl>, basement_sqft <dbl>, built_yr <dbl>, renovated_yr <dbl>,
#   zipcode <dbl>, lat <dbl>, long <dbl>, sqft_living15 <dbl>,
#   sqft_lot15 <dbl>, living_sqm <dbl>, lot_sqm <dbl>, above_sqm <dbl>,
#   basement_sqm <dbl>, mansion <chr>
…
Yes
751
404000
1541915
1300000
7700000

Do houses built in later years tend to have more living space? To answer this, group the data by built_yr, and then calculate the mean number of living square meters. Be sure to also include the number of houses built in each year!

kc_house %>%
  group_by(built_yr) %>%
  summarise(N = n(),
            living = mean(living_sqm))

# A tibble: 116 x 3
   built_yr     N living
      <dbl> <int>  <dbl>
 1     1900    87   161.
 2     1901    29   164.
 3     1902    27   179.
 4     1903    46   140.
 5     1904    45   149.
 6     1905    74   183.
 7     1906    92   168.
 8     1907    65   177.
 9     1908    86   158.
10     1909    94   177.
# … with 106 more rows
…
